^C:\USERS\DTCRO\SOURCE\REPOS\STACKEXAMPLE\STACKEXAMPLE\REVERSESTRING.CPP|C:\USERS\DTCRO\SOURCE\REPOS\STACKEXAMPLE\STACKEXAMPLE\STACKEXAMPLE.CPP
C:\USERS\DTCRO\SOURCE\REPOS\STACKEXAMPLE\STACKEXAMPLE\DEBUG\VC142.PDB
C:\USERS\DTCRO\SOURCE\REPOS\STACKEXAMPLE\STACKEXAMPLE\DEBUG\VC142.IDB
C:\USERS\DTCRO\SOURCE\REPOS\STACKEXAMPLE\STACKEXAMPLE\DEBUG\STACKEXAMPLE.OBJ
^C:\USERS\DTCRO\SOURCE\REPOS\STACKEXAMPLE\STACKEXAMPLE\STACKEXAMPLE.CPP
C:\USERS\DTCRO\SOURCE\REPOS\STACKEXAMPLE\STACKEXAMPLE\DEBUG\STACKEXAMPLE.OBJ
